System_C/testbench_ac.vcd
$date
     Oct 16, 2019       15:44:30
$end

$version
 SystemC 2.3.3-Accellera --- Sep 24 2019 18:02:38
$end

$timescale
     1 ps
$end

$scope module SystemC $end
$var wire    1  aaaaa  _clock       $end
$var wire    1  aaaab  _pc_inc       $end
$var wire    1  aaaac  _pc_inc       $end
$var wire    8  aaaad  _mem_out [7:0]  $end
$var wire    8  aaaae  _pc_out [7:0]  $end
$upscope $end
$enddefinitions  $end

$comment
All initial values are dumped below at time 1e-09 sec = 1000 timescale units.
$end

$dumpvars
0aaaaa
0aaaab
1aaaac
b11 aaaad
b0 aaaae
$end

#2000
1aaaaa
b11 aaaae

#3000
0aaaaa
0aaaac
b101 aaaad

#4000
1aaaaa

#5000
0aaaaa
1aaaab

#6000
1aaaaa
b100 aaaae

#7000
0aaaaa

#8000
1aaaaa
b101 aaaae

#9000
0aaaaa

#10000
1aaaaa
b110 aaaae

#11000
0aaaaa

#12000
1aaaaa
b111 aaaae

#13000
0aaaaa

#14000
1aaaaa
b1000 aaaae

